{
	"playerConfigurationPath" : "\\..\\resources\\eyewear_player\\",
	"appDataConfigurationPath" : "C:\\appDataTmp",
	"accessToken" : "abae5b65c8fe5c38d8678cb75943c2fe",
	"saasUrl" : "https://saas.trylive.com",
	"appId" : "com.acep.silmo.landscape.sensee",
	"playerType" : "eyewear",
	"playerProfileName" : "com-acep-silmo-landscape-sensee",
	"antialiasing": 10
}